[12:56:46] [192.168.112.1][c7b518a5][ManagementConnection] Unknown reconnection token (never seen).
Error: Unexpected SIGPIPE
    at process.<anonymous> (/usr/local/share/.config/yarn/global/node_modules/code-server/vendor/modules/code-oss-dev/out/bootstrap.js:1:370)
    at process.emit (events.js:400:28)
Error: Unexpected SIGPIPE
    at process.<anonymous> (/usr/local/share/.config/yarn/global/node_modules/code-server/vendor/modules/code-oss-dev/out/bootstrap.js:1:370)
    at process.emit (events.js:400:28)
Error: Unexpected SIGPIPE
    at process.<anonymous> (/usr/local/share/.config/yarn/global/node_modules/code-server/vendor/modules/code-oss-dev/out/bootstrap.js:1:370)
    at process.emit (events.js:400:28)
Error: Unexpected SIGPIPE
    at process.<anonymous> (/usr/local/share/.config/yarn/global/node_modules/code-server/vendor/modules/code-oss-dev/out/bootstrap.js:1:370)
    at process.emit (events.js:400:28)
Error: Unexpected SIGPIPE
    at process.<anonymous> (/usr/local/share/.config/yarn/global/node_modules/code-server/vendor/modules/code-oss-dev/out/bootstrap.js:1:370)
    at process.emit (events.js:400:28)
Error: Unexpected SIGPIPE
    at process.<anonymous> (/usr/local/share/.config/yarn/global/node_modules/code-server/vendor/modules/code-oss-dev/out/bootstrap.js:1:370)
    at process.emit (events.js:400:28)
Error: Unexpected SIGPIPE
    at process.<anonymous> (/usr/local/share/.config/yarn/global/node_modules/code-server/vendor/modules/code-oss-dev/out/bootstrap.js:1:370)
    at process.emit (events.js:400:28)
Error: Unexpected SIGPIPE
    at process.<anonymous> (/usr/local/share/.config/yarn/global/node_modules/code-server/vendor/modules/code-oss-dev/out/bootstrap.js:1:370)
    at process.emit (events.js:400:28)
Error: Unexpected SIGPIPE
    at process.<anonymous> (/usr/local/share/.config/yarn/global/node_modules/code-server/vendor/modules/code-oss-dev/out/bootstrap.js:1:370)
    at process.emit (events.js:400:28)
Error: Unexpected SIGPIPE
    at process.<anonymous> (/usr/local/share/.config/yarn/global/node_modules/code-server/vendor/modules/code-oss-dev/out/bootstrap.js:1:370)
    at process.emit (events.js:400:28)
Error: Unexpected SIGPIPE
    at process.<anonymous> (/usr/local/share/.config/yarn/global/node_modules/code-server/vendor/modules/code-oss-dev/out/bootstrap.js:1:370)
    at process.emit (events.js:400:28)
Error: Unexpected SIGPIPE
    at process.<anonymous> (/usr/local/share/.config/yarn/global/node_modules/code-server/vendor/modules/code-oss-dev/out/bootstrap.js:1:370)
    at process.emit (events.js:400:28)
a socket was left hanging
a socket was left hanging
a socket was left hanging
[13:19:44] No ptyHost heartbeat after 6 seconds
a socket was left hanging
